<svg xmlns="http://www.w3.org/2000/svg" width="28" height="28" viewBox="0 0 28 28">
    <path fill="#4DD0E1" d="M24.9 0H2.364C1.058 0 0 1.058 0 2.364V24.9c0 1.306 1.058 2.364 2.364 2.364h12.359l-.054-10.167h-3.386v-4.469h3.364c-.007-1.584-.012-2.761-.012-3.128 0-1.564-.67-5.363 4.022-5.363H23.8v3.8h-3.352c-1.117 0-1.341.224-1.341 1.564 0 .321.005 1.509.014 3.128h3.561v4.469h-3.537l.057 10.167h5.7c1.306 0 2.364-1.058 2.364-2.364V2.364c0-.627-.25-1.229-.693-1.672C26.129.248 25.527-.001 24.9 0z"/>
</svg>
